Visualization of Volcano Plots in R - Samuel's Blog
…
Let’s load the packages and import the data:

# The packages can be installed within R with:
# intstall.packages(c("tidyverse", "ggrepel"))

# Load packages
library(tidyverse)
library(ggrepel)

# Import data
data <- read_tsv("https://raw.githubusercontent.com/sdgamboa/misc_datasets/master/L0_vs_L20.tsv")
data

## # A tibble: 20,945 x 4
##    Genes   logFC   PValue      FDR
##    <chr>   <dbl>    <dbl>    <dbl>
##  1 276_4  -10.5  1.60e-61 3.35e-57
##  2 62_157  -9.32 6.98e-54 7.31e-50
##  3 144_7   12.2  2.42e-53 1.69e-49
##  4 198_6  -10.0  3.31e-53 1.73e-49
##  5 829_3   11.9  2.98e-51 1.25e-47
##  6 44_124  -8.91 2.98e-50 1.04e-46
##  7 25_31   -9.00 6.55e-50 1.96e-46
##  8 12_195  -8.94 7.51e-50 1.97e-46
##  9 127_41   7.95 1.45e-49 3.38e-46
## 10 31_39    7.72 1.42e-47 2.97e-44
## # … with 20,935 more rows
…
The dispersion of the points (representing genes) in the plot is similar to, you guessed, a volcano (that’s why they’re called volcano plots). Since the FDR values were transformed to their -log10, the higher the position of a point, the more significant its value is (y axis). Points with positive fold change values (to the right) are up-regulated and points with negative fold change values (to the left) are down-regulated (x axis).

Adding color to differentially expressed genes (DEGs)

Differentially expressed genes (DEGs) are usally considered as those with an absolute fold change greater or equal to 2 and a FDR value of 0.05 or less. So, we can make our volcano plot a bit more informative if we add some color to the DEGs in the plot. To do so, we’ll add an additional column, named ‘Expression’, indicating whether the expression of a gene is up-regulated, down-regulated, or unchanged:

data <- data %>% 
  mutate(
    Expression = case_when(logFC >= log(2) & FDR <= 0.05 ~ "Up-regulated",
                           logFC <= -log(2) & FDR <= 0.05 ~ "Down-regulated",
                           TRUE ~ "Unchanged")
    )
data

## # A tibble: 20,945 x 5
##    Genes   logFC   PValue      FDR Expression    
##    <chr>   <dbl>    <dbl>    <dbl> <chr>         
##  1 276_4  -10.5  1.60e-61 3.35e-57 Down-regulated
##  2 62_157  -9.32 6.98e-54 7.31e-50 Down-regulated
##  3 144_7   12.2  2.42e-53 1.69e-49 Up-regulated  
##  4 198_6  -10.0  3.31e-53 1.73e-49 Down-regulated
##  5 829_3   11.9  2.98e-51 1.25e-47 Up-regulated  
##  6 44_124  -8.91 2.98e-50 1.04e-46 Down-regulated
##  7 25_31   -9.00 6.55e-50 1.96e-46 Down-regulated
##  8 12_195  -8.94 7.51e-50 1.97e-46 Down-regulated
##  9 127_41   7.95 1.45e-49 3.38e-46 Up-regulated  
## 10 31_39    7.72 1.42e-47 2.97e-44 Up-regulated  
## # … with 20,935 more rows
…
Since we already know that the genes towards the right are up-regulated and the genes towards the left are down-regulated, it would be more informative if we colored the points according to their significance level instead. Let’s create another column, named ‘Significance’, and classify the genes according to significance thresholds (0.05, 0.01, and 0.001):

data <- data %>% 
  mutate(
    Significance = case_when(
      abs(logFC) >= log(2) & FDR <= 0.05 & FDR > 0.01 ~ "FDR 0.05", 
      abs(logFC) >= log(2) & FDR <= 0.01 & FDR > 0.001 ~ "FDR 0.01",
      abs(logFC) >= log(2) & FDR <= 0.001 ~ "FDR 0.001", 
      TRUE ~ "Unchanged")
  )
data

## # A tibble: 20,945 x 6
##    Genes   logFC   PValue      FDR Expression     Significance
##    <chr>   <dbl>    <dbl>    <dbl> <chr>          <chr>       
##  1 276_4  -10.5  1.60e-61 3.35e-57 Down-regulated FDR 0.001   
##  2 62_157  -9.32 6.98e-54 7.31e-50 Down-regulated FDR 0.001   
##  3 144_7   12.2  2.42e-53 1.69e-49 Up-regulated   FDR 0.001   
##  4 198_6  -10.0  3.31e-53 1.73e-49 Down-regulated FDR 0.001   
##  5 829_3   11.9  2.98e-51 1.25e-47 Up-regulated   FDR 0.001   
##  6 44_124  -8.91 2.98e-50 1.04e-46 Down-regulated FDR 0.001   
##  7 25_31   -9.00 6.55e-50 1.96e-46 Down-regulated FDR 0.001   
##  8 12_195  -8.94 7.51e-50 1.97e-46 Down-regulated FDR 0.001   
##  9 127_41   7.95 1.45e-49 3.38e-46 Up-regulated   FDR 0.001   
## 10 31_39    7.72 1.42e-47 2.97e-44 Up-regulated   FDR 0.001   
## # … with 20,935 more rows
…
